    {
      "type": "minecraft:block",
      "pools": [
        {
          "rolls": 1,
          "entries": [
            {
              "type": "minecraft:item",
              "name": "mymod:cube_ore"
            }
          ],
          "conditions": [
            {
              "condition": "minecraft:survives_explosion"
            }
          ]
        }
      ]
    }